{
  "routes": [
    {
      "method": "GET",
      "path": "/product-wholesale-prices",
      "handler": "product-wholesale-price.find",
      "config": {
        "policies": []
      }
    },
    {
      "method": "GET",
      "path": "/product-wholesale-prices/count",
      "handler": "product-wholesale-price.count",
      "config": {
        "policies": []
      }
    },
    {
      "method": "GET",
      "path": "/product-wholesale-prices/:id",
      "handler": "product-wholesale-price.findOne",
      "config": {
        "policies": []
      }
    },
    {
      "method": "POST",
      "path": "/product-wholesale-prices",
      "handler": "product-wholesale-price.create",
      "config": {
        "policies": []
      }
    },
    {
      "method": "PUT",
      "path": "/product-wholesale-prices/:id",
      "handler": "product-wholesale-price.update",
      "config": {
        "policies": []
      }
    },
    {
      "method": "DELETE",
      "path": "/product-wholesale-prices/:id",
      "handler": "product-wholesale-price.delete",
      "config": {
        "policies": []
      }
    }
  ]
}
