{
  "routes": [
    {
      "method": "GET",
      "path": "/master-sexes",
      "handler": "master-sex.find",
      "config": {
        "policies": []
      }
    },
    {
      "method": "GET",
      "path": "/master-sexes/count",
      "handler": "master-sex.count",
      "config": {
        "policies": []
      }
    },
    {
      "method": "GET",
      "path": "/master-sexes/:id",
      "handler": "master-sex.findOne",
      "config": {
        "policies": []
      }
    },
    {
      "method": "POST",
      "path": "/master-sexes",
      "handler": "master-sex.create",
      "config": {
        "policies": []
      }
    },
    {
      "method": "PUT",
      "path": "/master-sexes/:id",
      "handler": "master-sex.update",
      "config": {
        "policies": []
      }
    },
    {
      "method": "DELETE",
      "path": "/master-sexes/:id",
      "handler": "master-sex.delete",
      "config": {
        "policies": []
      }
    }
  ]
}
