{
  "routes": [
    {
      "method": "GET",
      "path": "/master-shipping-carriers",
      "handler": "master-shipping-carrier.find",
      "config": {
        "policies": []
      }
    },
    {
      "method": "GET",
      "path": "/master-shipping-carriers/count",
      "handler": "master-shipping-carrier.count",
      "config": {
        "policies": []
      }
    },
    {
      "method": "GET",
      "path": "/master-shipping-carriers/:id",
      "handler": "master-shipping-carrier.findOne",
      "config": {
        "policies": []
      }
    },
    {
      "method": "POST",
      "path": "/master-shipping-carriers",
      "handler": "master-shipping-carrier.create",
      "config": {
        "policies": []
      }
    },
    {
      "method": "PUT",
      "path": "/master-shipping-carriers/:id",
      "handler": "master-shipping-carrier.update",
      "config": {
        "policies": []
      }
    },
    {
      "method": "DELETE",
      "path": "/master-shipping-carriers/:id",
      "handler": "master-shipping-carrier.delete",
      "config": {
        "policies": []
      }
    }
  ]
}
