{
  "kind": "collectionType",
  "collectionName": "t_charge",
  "info": {
    "name": "Transaction Charge",
    "description": ""
  },
  "options": {
    "increments": true,
    "timestamps": true,
    "draftAndPublish": true
  },
  "attributes": {
    "type": {
      "type": "enumeration",
      "enum": [
        "SALE",
        "SERVICE"
      ],
      "default": "SALE",
      "required": true
    },
    "price": {
      "type": "decimal"
    },
    "description": {
      "type": "text"
    },
    "attachment": {
      "model": "file",
      "via": "related",
      "allowedTypes": [
        "images",
        "files",
        "videos"
      ],
      "plugin": "upload",
      "required": false
    }
  }
}
