{
  "kind": "collectionType",
  "collectionName": "users-permissions_user",
  "info": {
    "name": "user",
    "description": ""
  },
  "options": {
    "draftAndPublish": false,
    "timestamps": true
  },
  "attributes": {
    "username": {
      "type": "string",
      "minLength": 3,
      "unique": true,
      "configurable": false,
      "required": true
    },
    "email": {
      "type": "email",
      "minLength": 6,
      "configurable": false,
      "required": true
    },
    "provider": {
      "type": "string",
      "configurable": false
    },
    "password": {
      "type": "password",
      "minLength": 6,
      "configurable": false,
      "private": true
    },
    "resetPasswordToken": {
      "type": "string",
      "configurable": false,
      "private": true
    },
    "confirmed": {
      "type": "boolean",
      "default": false,
      "configurable": false
    },
    "blocked": {
      "type": "boolean",
      "default": true,
      "configurable": false
    },
    "role": {
      "model": "role",
      "via": "users",
      "plugin": "users-permissions",
      "configurable": false
    },
    "confirmationToken": {
      "type": "string",
      "configurable": false,
      "private": true
    },
    "firstnameEN": {
      "type": "string"
    },
    "lastnameEN": {
      "type": "string"
    },
    "avatar": {
      "model": "file",
      "via": "related",
      "allowedTypes": [
        "images"
      ],
      "plugin": "upload",
      "required": false
    },
    "firstnameTH": {
      "type": "string"
    },
    "lastnameTH": {
      "type": "string"
    },
    "nicknameEN": {
      "type": "string"
    },
    "nicknameTH": {
      "type": "string"
    },
    "idcard": {
      "type": "string",
      "required": false
    },
    "idcardImage": {
      "model": "file",
      "via": "related",
      "allowedTypes": [
        "images",
        "files",
        "videos"
      ],
      "plugin": "upload",
      "required": false
    },
    "phoneNumber": {
      "type": "string"
    },
    "line": {
      "type": "string"
    },
    "facebook": {
      "type": "string"
    },
    "instagram": {
      "type": "string"
    },
    "slip": {
      "model": "file",
      "via": "related",
      "allowedTypes": [
        "images",
        "files",
        "videos"
      ],
      "plugin": "upload",
      "required": false
    },
    "mSex": {
      "model": "master-sex"
    },
    "mLevel": {
      "model": "master-level"
    },
    "consent": {
      "type": "boolean",
      "default": false
    },
    "parent": {
      "plugin": "users-permissions",
      "model": "user"
    },
    "orderSummary": {
      "model": "order-summary",
      "via": "user"
    },
    "addresses": {
      "collection": "address",
      "via": "user"
    }
  }
}
