<?xml version="1.0" encoding="UTF-8"?>
<!DOCTYPE svg PUBLIC "-//W3C//DTD SVG 1.1//EN"
  "http://www.w3.org/Graphics/SVG/1.1/DTD/svg11.dtd">
<!-- Created with Inkpad (http://www.taptrix.com/) --><svg xmlns:inkpad="http://taptrix.com/inkpad/svg_extensions" height="278pt" xmlns:xlink="http://www.w3.org/1999/xlink" xmlns="http://www.w3.org/2000/svg" width="712pt" version="1.1" viewBox="0,0,712,278">
<defs/>
<g id="Untitled" inkpad:layerName="Untitled">
<g opacity="1">
<path d="M304.5+1.1C233.3+4.3+147.4+18+83.5+36.5C55.6+44.6+34.6+51.7+12.7+60.2L0+65.2L0+139L0+212.8L12.9+217.9C26.9+223.4+66+236.7+78+239.9C164.3+263.5+232.7+274.1+318.2+277.2C414+280.6+516+269.6+613.5+245.4C648.5+236.6+689.6+223.8+705.8+216.5L712+213.7L712+139L712+64.3L704.9+61.1C688.3+53.7+646+40.5+611.5+32.1C509.5+7+406.4-3.3+304.5+1.1ZM119.1+71.1C131.3+73.5+141.5+77.4+149+82.5C174.4+99.8+182.3+133.5+167.9+163C164.6+169.6+162+173.2+156.1+179C147.1+187.8+138.1+192.7+123.2+196.8L113.5+199.4L73.6+199.2C49.5+199.1+33.3+198.7+32.7+198.1C32.2+197.6+32+196+32.4+194.6C32.9+192.5+33.7+192.1+38.5+191.5C46.7+190.4+48+189+49+179.5C49.5+175.1+49.8+167.3+49.7+162.2L49.5+153L63.6+153L77.8+153L78.2+166.2C78.8+184.5+80.8+187.8+92.5+190.2C99.8+191.6+109.4+190.1+117.6+186C134.5+177.7+144+156.5+142.7+130C141.7+109+135.1+95.6+121.7+86.9C114.6+82.3+108.5+80.2+97.8+78.7L89.7+77.5L89.7+73.7C89.8+71.7+89.9+69.7+89.9+69.3C90+68.4+112.7+69.7+119.1+71.1ZM71.8+71.2C72.6+72+73+75.9+73+82.3C73+91.9+73.1+92.2+75.9+95.1C78.7+97.8+79.4+98+86.7+98C91+98+95.2+98.5+96+99C97.1+99.7+97.6+102.3+97.8+108.8C98.3+120.5+97.8+121+86.5+121C78.4+121+78.1+121.1+75.6+124.1C73.5+126.6+73+128.2+73+132.9C73+136+72.5+139.1+71.8+139.8C70.2+141.4+58.8+141.4+57.2+139.8C56.5+139.1+56+135.9+56+132.4C56+124.3+57.2+123+65+123C70.3+123+71.1+122.7+73.4+119.9C75.7+117.2+76+116+76+109.1C76+101.8+75.8+101.2+72.9+98.4C70.1+95.7+69.3+95.5+59.7+95L49.5+94.5L49.2+83.6C49.1+77.5+49.2+72+49.4+71.3C50.1+69.5+70+69.4+71.8+71.2ZM672+86.1C670.7+91.5+667.9+94.3+660.5+97.6C658.3+98.6+656.2+99.6+655.8+99.8C654.4+100.5+655+95.5+656.9+91.5C658.3+88.3+660.2+86.5+665.6+83.3C669.4+81+672.7+79.6+672.8+80.1C673+80.6+672.6+83.3+672+86.1ZM669.3+146.3C669.5+187.7+669.6+190.2+671.4+191.5C672.7+192.5+673.9+192.6+675.8+191.9C678.6+190.8+680.4+191.9+679.5+194.1C678.9+195.6+661.3+200.3+659.8+199.4C659.4+199.1+659+197.6+659+195.9L659+193L653.8+195.7C649.6+197.9+647.2+198.4+642+198.4C627.2+198.3+617.4+187.9+617.6+172.5C617.7+163.2+620.7+156.4+627.2+150.5C633.6+144.8+640.1+142.6+650.8+142.6L659+142.6L659+128.8C659+115.3+658.9+114.8+656.5+112.4C655.1+111+654+109.3+654+108.6C654+107.3+665.5+102.1+667.8+102.4C668.9+102.5+669.2+110.6+669.3+146.3ZM518.6+143C536+194.3+534.5+191.2+542.1+192.4C545.4+192.9+546+193.4+546+195.5L546+198L529.1+198C515.9+198+512.1+197.7+511.7+196.7C510.9+194.5+512.3+193.1+516.5+192.2C521.3+191.2+521.3+191.6+516.2+176L512.5+164.5L498.8+164.2L485.1+163.9L481+176.6C478.8+183.6+477+189.8+477+190.4C477+191.1+478.9+192+481.3+192.6C484.5+193.3+485.5+194+485.5+195.5C485.5+197.5+484.7+197.5+454.6+197.8C423.1+198+421.4+197.9+422.7+194.3C423+193.6+425+192.7+427.1+192.4C429.2+192+431.4+191.2+432+190.5C432.7+189.7+432.9+179.2+432.8+160.4L432.5+131.5L415.6+165.3C404.3+187.9+398.2+199+397.3+198.8C396.5+198.6+393.5+193.1+390.6+186.5C387.7+179.9+383.1+170+380.5+164.5C377.9+159+373.4+149.2+370.5+142.7C365.3+131+365.3+131+364.6+134.7C364.3+136.8+363.7+149.8+363.3+163.7C362.8+182.6+363+189.3+363.9+190.3C364.5+191.1+367.1+192.1+369.5+192.5C373.4+193+374+193.4+374+195.6L374+198L359.8+198.2C333.4+198.7+330.8+198.6+326.4+196.3C320.3+193.1+315.6+187.8+306.6+174C302+167.1+297.6+160.9+296.6+160.1C295.6+159.3+292.7+158.6+290.2+158.6L285.5+158.5L285.2+172.9C284.9+189.7+285.5+191.3+291.9+192.4C295.4+192.9+296+193.4+296+195.5L296+198L278.5+198C263.5+198+260.9+197.8+260.3+196.4C259.5+194.2+261.3+192.8+265.7+192.1C271.9+191.1+272+190.6+271.9+153C271.9+134.6+271.5+118.6+271.1+117.6C270.6+116.3+268.7+115.2+265.9+114.6C262.5+113.7+261.5+113+261.5+111.5C261.5+108.7+264.6+108.3+285.5+108.1C305.5+108+311.4+109+317.8+113.4C328+120.4+329.8+135.7+321.7+145.5C320+147.6+316.7+150.5+314.3+152L310.1+154.7L315.6+163.5C327+181.8+339.2+195+343+193.4C343.8+193.1+346+192.4+347.9+192C349.7+191.5+351.7+190.7+352.2+190.2C354+188.4+355+177.3+357.6+130.8C358.4+116.8+357.5+114.6+351+113.5C347.6+112.9+347+112.5+347+110.4L347+108L358.9+108L370.7+108L371.3+112.3C372.1+118+376.4+127.9+389.9+154.9L401.2+177.3L403.4+173.4C409.6+162.3+432.1+114.9+432.7+111.7L433.3+108L445.1+108C451.6+108+457.1+108.4+457.4+108.9C458.7+110.9+456.7+112.9+452.8+113.5C445.6+114.7+445+116.2+445.1+130.7C445.1+137.8+445.5+153.7+445.9+166.3C446.7+193.1+446.4+192.4+456.4+192.4C460.3+192.4+463.6+191.8+465+190.9C466.2+190.1+468.7+185.7+470.7+181C477.4+165.1+496+115+496+113.1C496+112+496.8+110.9+497.9+110.5C498.9+110.2+500.6+109+501.6+107.9C502.6+106.8+504+106.1+504.8+106.2C505.7+106.4+510.7+119.7+518.6+143ZM247.5+115.7C247.9+120+248.3+124.4+248.3+125.5C248.5+126.9+247.8+127.6+246.3+127.8C244.5+128.1+243.7+127.2+241.9+123C238.8+115.7+236.3+114.7+221.5+114.6L209.5+114.5L209.2+131.2L209+148L217.7+147.9C231+147.7+232.2+147.3+233.5+142.3C234.7+137.4+236.1+135.7+238.1+136.5C239.4+137+239.6+139.6+239.5+151.3L239.4+165.5L237+165.5C235+165.5+234.4+164.8+233.5+161.3C233+159+232+156.6+231.4+156C230.7+155.3+226+154.8+219.9+154.7L209.5+154.5L209.5+170.8C209.5+192.1+208.7+191.3+228.1+190.8C243.7+190.5+243.7+190.4+249.6+181.2C253.2+175.7+254.1+175.2+255.9+177.4C257.2+179+256.4+183.2+252.8+192.7L250.9+198L216.9+198L183+198L183+195.6C183+193.4+183.6+193+187.5+192.5C196+191.2+195.5+193.8+195.5+153.1C195.5+113.7+195.6+114.7+189.6+113.6C186+112.9+184.6+111.6+185.3+109.6C185.9+108.2+189.7+108+216.4+108L246.8+108L247.5+115.7ZM602.4+116.2C607.6+123.6+598.8+131.9+592.3+125.8C587.5+121.3+590.7+114+597.4+114C599.9+114+601.3+114.7+602.4+116.2ZM562.2+139.2L562.5+143.5L571.2+143.8C579+144+580+144.3+580.5+146.1C581.5+149.3+580.2+149.9+571+150.2L562.5+150.5L562.5+168.2C562.5+184.5+562.7+186.1+564.6+188.6C567.2+192.2+570.7+193.1+575.6+191.4C579.8+190+580.5+190.1+579.7+192.5C577.9+197+567.1+200+560.6+197.8C553.1+195.3+552.6+193.6+552+170.7L551.5+150.5L548.6+150C544.2+149.2+544.5+147.7+549.5+145.2C552.1+143.9+555.2+141.4+556.8+139.1C560.3+133.9+561.8+133.9+562.2+139.2ZM603.1+165.2C602.9+190.4+603.3+193+607.4+193C609.9+193+612.5+195.2+611.3+196.3C611+196.7+604.9+197+597.8+197C586+197+584.9+196.8+585.2+195.2C585.4+194.3+586.6+193.4+588+193.2C592.6+192.6+593+190.9+593+171.8C593+154+593+153.9+590.5+151.6C589.1+150.3+588+148.8+588+148.3C588+147.1+600+141.1+601.9+141.3C603+141.5+603.2+145.6+603.1+165.2Z" opacity="1" fill="#1c4595"/>
<path d="M639.4+148.4C633.2+151.1+628.9+159.1+628.8+168C628.6+178.6+633.1+186.8+640.8+190.2C646+192.5+652.4+192.3+656.5+189.6L659+188L659+171.2C659+157.6+658.7+154+657.4+152.2C654+147.3+645.9+145.6+639.4+148.4Z" opacity="1" fill="#1c4595"/>
<path d="M285.7+114.7C285.3+115+285+123.6+285+133.8L285+152.2L294+151.8C301.1+151.5+303.6+150.9+305.8+149.3C311.6+145+314.2+136.2+312+128.2C310.6+122.6+304.9+116.3+300.2+115C296+113.9+286.7+113.7+285.7+114.7Z" opacity="1" fill="#1c4595"/>
<path d="M498.1+128.7C497.5+130.2+495.1+137+492.6+143.7L488.2+156L498.6+156C505.1+156+509+155.6+509+155C509+154+500+126.8+499.5+126.2C499.4+126.1+498.8+127.2+498.1+128.7Z" opacity="1" fill="#1c4595"/>
</g>
</g>
</svg>
